[
    {
        "number": 1,
        "question": "Bagaimana penilaian Anda terhadap ketersediaan waktu bimbingan yang diberikan oleh dosen pembimbing skripsi?",
        "options": [
            {
                "value": 5,
                "content": "Sangat Memuaskan"
            },
            {
                "value": 4,
                "content": "Memuaskan"
            },
            {
                "value": 3,
                "content": "Cukup"
            },
            {
                "value": 2,
                "content": "Kurang"
            },
            {
                "value": 1,
                "content": "Sangat Kurang"
            }
        ]
    },
    {
        "number": 2,
        "question": "Bagaimana penilaian Anda dengan fasilitas fisik yang disediakan oleh kampus, seperti ruang konsultasi atau laboratorium, mendukung proses penelitian skripsi Anda, apakah Anda puas?",
        "options": [
            {
                "value": 5,
                "content": "Sangat Puas"
            },
            {
                "value": 4,
                "content": "Puas"
            },
            {
                "value": 3,
                "content": "Netral"
            },
            {
                "value": 2,
                "content": "Tidak Puas"
            },
            {
                "value": 1,
                "content": "Sangat Tidak Puas"
            }
        ]
    },
    {
        "number": 3,
        "question": "Apakah Anda puas dengan kualitas bahan bacaan atau sumber daya fisik (buku, jurnal, akses perpustakaan, dll.) memadai untuk menunjang penulisan skripsi Anda?",
        "options": [
            {
                "value": 5,
                "content": "Sangat Puas"
            },
            {
                "value": 4,
                "content": "Puas"
            },
            {
                "value": 3,
                "content": "Netral"
            },
            {
                "value": 2,
                "content": "Tidak Puas"
            },
            {
                "value": 1,
                "content": "Sangat Tidak Puas"
            }
        ]
    },
    {
        "number": 4,
        "question": "Bagaimana kepuasan Anda terhadap kejelasan arahan dan panduan yang diberikan oleh dosen pembimbing selama proses penyusunan skripsi?",
        "options": [
            {
                "value": 5,
                "content": "Sangat Puas"
            },
            {
                "value": 4,
                "content": "Puas"
            },
            {
                "value": 3,
                "content": "Netral"
            },
            {
                "value": 2,
                "content": "Tidak Puas"
            },
            {
                "value": 1,
                "content": "Sangat Tidak Puas"
            }
        ]
    },
    {
        "number": 5,
        "question": "Apakah Anda puas dengan sarana teknologi yang tersedia (misalnya, perangkat lunak, akses internet) membantu kelancaran dan kualitas penelitian serta penulisan skripsi Anda?",
        "options": [
            {
                "value": 5,
                "content": "Sangat Puas"
            },
            {
                "value": 4,
                "content": "Puas"
            },
            {
                "value": 3,
                "content": "Netral"
            },
            {
                "value": 2,
                "content": "Tidak Puas"
            },
            {
                "value": 1,
                "content": "Sangat Tidak Puas"
            }
        ]
    },
    {
        "number": 6,
        "question": "Bagaimana pendapat Anda terhadap tingkat pemahaman dosen pembimbing terhadap tantangan yang Anda hadapi dalam penelitian skripsi Anda?",
        "options": [
            {
                "value": 5,
                "content": "Sangat Memahami"
            },
            {
                "value": 4,
                "content": "Memahami"
            },
            {
                "value": 3,
                "content": "Netral"
            },
            {
                "value": 2,
                "content": "Kurang Memahami"
            },
            {
                "value": 1,
                "content": "Sangat Tidak Memahami"
            }
        ]
    },
    {
        "number": 7,
        "question": "Apakah Anda merasa bahwa dosen pembimbing mampu mendengarkan dengan empati dan memahami kebutuhan serta kendala yang Anda alami dalam proses penulisan skripsi?",
        "options": [
            {
                "value": 5,
                "content": "Sangat Mampu"
            },
            {
                "value": 4,
                "content": "Mampu"
            },
            {
                "value": 3,
                "content": "Netral"
            },
            {
                "value": 2,
                "content": "Kurang Mampu"
            },
            {
                "value": 1,
                "content": "Sangat Kurang Mampu"
            }
        ]
    },
    {
        "number": 8,
        "question": "Seberapa efektif dosen pembimbing dalam menunjukkan perhatian terhadap perasaan, kekhawatiran, dan kepuasan Anda dalam penelitian skripsi?",
        "options": [
            {
                "value": 5,
                "content": "Sangat Efektif"
            },
            {
                "value": 4,
                "content": "Efektif"
            },
            {
                "value": 3,
                "content": "Netral"
            },
            {
                "value": 2,
                "content": "Kurang Efektif"
            },
            {
                "value": 1,
                "content": "Sangat Kurang Efektif"
            }
        ]
    },
    {
        "number": 9,
        "question": "Bagaimana pandangan Anda terhadap upaya dosen pembimbing dalam menciptakan lingkungan yang mendukung, nyaman, dan memperhatikan kebutuhan serta harapan mahasiswa dalam penyusunan skripsi?",
        "options": [
            {
                "value": 5,
                "content": "Sangat Baik"
            },
            {
                "value": 4,
                "content": "Baik"
            },
            {
                "value": 3,
                "content": "Netral"
            },
            {
                "value": 2,
                "content": "Kurang Baik"
            },
            {
                "value": 1,
                "content": "Sangat Kurang Baik"
            }
        ]
    },
    {
        "number": 10,
        "question": "Sejauh mana dosen pembimbing menunjukkan kepekaan terhadap kondisi psikologis dan keberlangsungan proses penelitian yang sedang Anda lalui?",
        "options": [
            {
                "value": 5,
                "content": "Sangat Sensitif"
            },
            {
                "value": 4,
                "content": "Sensitif"
            },
            {
                "value": 3,
                "content": "Netral"
            },
            {
                "value": 2,
                "content": "Kurang Sensitif"
            },
            {
                "value": 1,
                "content": "Sangat Kurang Sensitif"
            }
        ]
    },
    {
        "number": 11,
        "question": "Bagaimana pendapat Anda tentang kesediaan dosen pembimbing dalam memberikan tanggapan atau respon yang cepat terhadap pertanyaan atau permintaan bantuan Anda terkait skripsi?",
        "options": [
            {
                "value": 5,
                "content": "Sangat Responsif"
            },
            {
                "value": 4,
                "content": "Resonsif"
            },
            {
                "value": 3,
                "content": "Netral"
            },
            {
                "value": 2,
                "content": "Kurang Responsif"
            },
            {
                "value": 1,
                "content": "Sangat Kurang Responsif"
            }
        ]
    },
    {
        "number": 12,
        "question": "Sejauh mana dosen pembimbing responsif terhadap perubahan rencana penelitian atau permasalahan yang muncul selama proses penyusunan skripsi?",
        "options": [
            {
                "value": 5,
                "content": "Sangat Responsif"
            },
            {
                "value": 4,
                "content": "Resonsif"
            },
            {
                "value": 3,
                "content": "Netral"
            },
            {
                "value": 2,
                "content": "Kurang Responsif"
            },
            {
                "value": 1,
                "content": "Sangat Kurang Responsif"
            }
        ]
    },
    {
        "number": 13,
        "question": "Bagaimana penilaian Anda terhadap kemampuan dosen pembimbing dalam memberikan arahan atau bimbingan tambahan sesuai dengan kebutuhan dan jadwal Anda dalam menyelesaikan skripsi?",
        "options": [
            {
                "value": 5,
                "content": "Sangat Baik"
            },
            {
                "value": 4,
                "content": "Baik"
            },
            {
                "value": 3,
                "content": "Netral"
            },
            {
                "value": 2,
                "content": "Kurang Baik"
            },
            {
                "value": 1,
                "content": "Sangat Kurang Baik"
            }
        ]
    },
    {
        "number": 14,
        "question": "Seberapa efektif dosen pembimbing merespons aspirasi, harapan, dan kebutuhan Anda dalam hal jadwal pertemuan atau pembimbingan skripsi?",
        "options": [
            {
                "value": 5,
                "content": "Sangat Efektif"
            },
            {
                "value": 4,
                "content": "Efektif"
            },
            {
                "value": 3,
                "content": "Netral"
            },
            {
                "value": 2,
                "content": "Kurang Efektif"
            },
            {
                "value": 1,
                "content": "Sangat Kurang Efektif"
            }
        ]
    },
    {
        "number": 15,
        "question": "Bagaimana pandangan Anda terhadap kesigapan dosen pembimbing dalam memberikan solusi atau arahan jika terdapat hambatan atau kesulitan yang Anda temui dalam proses penelitian skripsi?",
        "options": [
            {
                "value": 5,
                "content": "Sangat Sigap"
            },
            {
                "value": 4,
                "content": "Sigap"
            },
            {
                "value": 3,
                "content": "Netral"
            },
            {
                "value": 2,
                "content": "Kurang Sigap"
            },
            {
                "value": 1,
                "content": "Sangat Kurang Sigap"
            }
        ]
    },
    {
        "number": 16,
        "question": "Sejauh mana Anda merasa bahwa dosen pembimbing memberikan arahan atau panduan yang konsisten dan dapat diandalkan sepanjang proses penulisan skripsi?",
        "options": [
            {
                "value": 5,
                "content": "Sangat Konsisten dan Dapat Diandalkan"
            },
            {
                "value": 4,
                "content": "Konsisten dan Dapat Diandalkan"
            },
            {
                "value": 3,
                "content": "Netral"
            },
            {
                "value": 2,
                "content": "Tidak Konsisten dan Kurang Dapat Diandalkan"
            },
            {
                "value": 1,
                "content": "Sangat Tidak Konsisten dan Tidak Dapat Diandalkan"
            }
        ]
    },
    {
        "number": 17,
        "question": "Bagaimana penilaian Anda terhadap konsistensi ketersediaan waktu bimbingan yang telah dijadwalkan oleh dosen pembimbing?",
        "options": [
            {
                "value": 5,
                "content": "Sangat Konsisten"
            },
            {
                "value": 4,
                "content": "Konsisten"
            },
            {
                "value": 3,
                "content": "Netral"
            },
            {
                "value": 2,
                "content": "Tidak Konsisten"
            },
            {
                "value": 1,
                "content": "Sangat Tidak Konsisten"
            }
        ]
    },
    {
        "number": 18,
        "question": "Apakah Anda merasa bahwa arahan atau petunjuk yang diberikan oleh dosen pembimbing selalu dapat diandalkan dan sesuai dengan kebutuhan penulisan skripsi Anda?",
        "options": [
            {
                "value": 5,
                "content": "Selalu Dapat Diandalkan dan Sesuai"
            },
            {
                "value": 4,
                "content": "Biasanya Dapat Diandalkan dan Sesuai"
            },
            {
                "value": 3,
                "content": "Netral"
            },
            {
                "value": 2,
                "content": "Kadang Tidak Dapat Diandalkan dan Sesuai"
            },
            {
                "value": 1,
                "content": "Tidak Dapat Diandalkan dan Tidak Sesuai"
            }
        ]
    },
    {
        "number": 19,
        "question": "Seberapa konsisten dosen pembimbing dalam memberikan umpan balik yang jelas dan konsisten terkait dengan progres dan kualitas skripsi yang Anda tulis?",
        "options": [
            {
                "value": 5,
                "content": "Sangat konsisten"
            },
            {
                "value": 4,
                "content": "Konsisten"
            },
            {
                "value": 3,
                "content": "Netral"
            },
            {
                "value": 2,
                "content": "Kadang Tidak Konsisten"
            },
            {
                "value": 1,
                "content": "Tidak Konsisten"
            }
        ]
    },
    {
        "number": 20,
        "question": "Bagaimana pendapat Anda mengenai konsistensi dosen pembimbing dalam menjaga komunikasi yang teratur dan terpercaya sepanjang perjalanan penulisan skripsi?",
        "options": [
            {
                "value": 5,
                "content": "Sangat Konsisten dan Terpercaya"
            },
            {
                "value": 4,
                "content": "Konsisten dan Terpercaya"
            },
            {
                "value": 3,
                "content": "Netral"
            },
            {
                "value": 2,
                "content": "Kurang Konsisten dan Kurang Terpercaya"
            },
            {
                "value": 1,
                "content": "Sangat Kurang Konsisten dan Tidak Terpercaya"
            }
        ]
    },
    {
        "number": 21,
        "question": "Sejauh mana Anda merasa yakin bahwa dosen pembimbing memiliki pengetahuan dan keterampilan yang cukup untuk memberikan bimbingan yang berkualitas dalam penulisan skripsi?",
        "options": [
            {
                "value": 5,
                "content": "Sangat Yakin"
            },
            {
                "value": 4,
                "content": "Yakin"
            },
            {
                "value": 3,
                "content": "Netral"
            },
            {
                "value": 2,
                "content": "Kurang Yakin"
            },
            {
                "value": 1,
                "content": "Sangat Kurang Yakin"
            }
        ]
    },
    {
        "number": 22,
        "question": "Bagaimana penilaian Anda terhadap kesesuaian saran atau arahan yang diberikan oleh dosen pembimbing dengan standar akademik yang berlaku dalam bidang penelitian Anda?",
        "options": [
            {
                "value": 5,
                "content": "Sangat Sesuai"
            },
            {
                "value": 4,
                "content": "Sesuai"
            },
            {
                "value": 3,
                "content": "Netral"
            },
            {
                "value": 2,
                "content": "Kurang Sesuai"
            },
            {
                "value": 1,
                "content": "Sangat Kurang Sesuai"
            }
        ]
    },
    {
        "number": 23,
        "question": "Apakah Anda merasa bahwa dosen pembimbing mampu memberikan keyakinan terkait validitas dan relevansi topik serta metode penelitian yang Anda pilih?",
        "options": [
            {
                "value": 5,
                "content": "Sangat Yakin"
            },
            {
                "value": 4,
                "content": "Yakin"
            },
            {
                "value": 3,
                "content": "Netral"
            },
            {
                "value": 2,
                "content": "Kurang Yakin"
            },
            {
                "value": 1,
                "content": "Sangat Kurang Yakin"
            }
        ]
    },
    {
        "number": 24,
        "question": "Seberapa efektif dosen pembimbing dalam memberikan jaminan terkait kesesuaian penulisan skripsi Anda dengan tujuan dan kriteria evaluasi yang diperlukan?",
        "options": [
            {
                "value": 5,
                "content": "Sangat Efektif"
            },
            {
                "value": 4,
                "content": "Efektif"
            },
            {
                "value": 3,
                "content": "Netral"
            },
            {
                "value": 2,
                "content": "Kurang Efektif"
            },
            {
                "value": 1,
                "content": "Sangat Kurang Efektif"
            }
        ]
    },
    {
        "number": 25,
        "question": "Bagaimana pendapat Anda terhadap kemampuan dosen pembimbing dalam memberikan kepercayaan bahwa skripsi yang Anda tulis memenuhi standar kualitas yang diharapkan oleh institusi?",
        "options": [
            {
                "value": 5,
                "content": "Sangat Baik"
            },
            {
                "value": 4,
                "content": "Baik"
            },
            {
                "value": 3,
                "content": "Netral"
            },
            {
                "value": 2,
                "content": "Kurang Baik"
            },
            {
                "value": 1,
                "content": "Sangat Kurang Baik"
            }
        ]
    }
]